simulation/qsim/ComputadorReBasico.msim.vcd
$comment
	File created using the following command:
		vcd file ComputadorReBasico.msim.vcd -direction
$end
$date
	Mon Feb 17 15:48:06 2020
$end
$version
	ModelSim Version 10.4d
$end
$timescale
	1ps
$end

$scope module CompBasicoSem5_vlg_vec_tst $end
$var reg 1 ! clkCPU $end
$var reg 1 " reset $end
$var wire 1 # BusControl $end
$var wire 1 $ BusDatos [15] $end
$var wire 1 % BusDatos [14] $end
$var wire 1 & BusDatos [13] $end
$var wire 1 ' BusDatos [12] $end
$var wire 1 ( BusDatos [11] $end
$var wire 1 ) BusDatos [10] $end
$var wire 1 * BusDatos [9] $end
$var wire 1 + BusDatos [8] $end
$var wire 1 , BusDatos [7] $end
$var wire 1 - BusDatos [6] $end
$var wire 1 . BusDatos [5] $end
$var wire 1 / BusDatos [4] $end
$var wire 1 0 BusDatos [3] $end
$var wire 1 1 BusDatos [2] $end
$var wire 1 2 BusDatos [1] $end
$var wire 1 3 BusDatos [0] $end
$var wire 1 4 BusDirecciones [4] $end
$var wire 1 5 BusDirecciones [3] $end
$var wire 1 6 BusDirecciones [2] $end
$var wire 1 7 BusDirecciones [1] $end
$var wire 1 8 BusDirecciones [0] $end
$var wire 1 9 BusInterno [7] $end
$var wire 1 : BusInterno [6] $end
$var wire 1 ; BusInterno [5] $end
$var wire 1 < BusInterno [4] $end
$var wire 1 = BusInterno [3] $end
$var wire 1 > BusInterno [2] $end
$var wire 1 ? BusInterno [1] $end
$var wire 1 @ BusInterno [0] $end
$var wire 1 A C $end
$var wire 1 B N $end
$var wire 1 C OpeA [7] $end
$var wire 1 D OpeA [6] $end
$var wire 1 E OpeA [5] $end
$var wire 1 F OpeA [4] $end
$var wire 1 G OpeA [3] $end
$var wire 1 H OpeA [2] $end
$var wire 1 I OpeA [1] $end
$var wire 1 J OpeA [0] $end
$var wire 1 K OpeB [7] $end
$var wire 1 L OpeB [6] $end
$var wire 1 M OpeB [5] $end
$var wire 1 N OpeB [4] $end
$var wire 1 O OpeB [3] $end
$var wire 1 P OpeB [2] $end
$var wire 1 Q OpeB [1] $end
$var wire 1 R OpeB [0] $end
$var wire 1 S OutAlu [7] $end
$var wire 1 T OutAlu [6] $end
$var wire 1 U OutAlu [5] $end
$var wire 1 V OutAlu [4] $end
$var wire 1 W OutAlu [3] $end
$var wire 1 X OutAlu [2] $end
$var wire 1 Y OutAlu [1] $end
$var wire 1 Z OutAlu [0] $end
$var wire 1 [ R0 [7] $end
$var wire 1 \ R0 [6] $end
$var wire 1 ] R0 [5] $end
$var wire 1 ^ R0 [4] $end
$var wire 1 _ R0 [3] $end
$var wire 1 ` R0 [2] $end
$var wire 1 a R0 [1] $end
$var wire 1 b R0 [0] $end
$var wire 1 c R1 [7] $end
$var wire 1 d R1 [6] $end
$var wire 1 e R1 [5] $end
$var wire 1 f R1 [4] $end
$var wire 1 g R1 [3] $end
$var wire 1 h R1 [2] $end
$var wire 1 i R1 [1] $end
$var wire 1 j R1 [0] $end
$var wire 1 k R2 [7] $end
$var wire 1 l R2 [6] $end
$var wire 1 m R2 [5] $end
$var wire 1 n R2 [4] $end
$var wire 1 o R2 [3] $end
$var wire 1 p R2 [2] $end
$var wire 1 q R2 [1] $end
$var wire 1 r R2 [0] $end
$var wire 1 s R3 [7] $end
$var wire 1 t R3 [6] $end
$var wire 1 u R3 [5] $end
$var wire 1 v R3 [4] $end
$var wire 1 w R3 [3] $end
$var wire 1 x R3 [2] $end
$var wire 1 y R3 [1] $end
$var wire 1 z R3 [0] $end
$var wire 1 { R4 [7] $end
$var wire 1 | R4 [6] $end
$var wire 1 } R4 [5] $end
$var wire 1 ~ R4 [4] $end
$var wire 1 !! R4 [3] $end
$var wire 1 "! R4 [2] $end
$var wire 1 #! R4 [1] $end
$var wire 1 $! R4 [0] $end
$var wire 1 %! R5 [7] $end
$var wire 1 &! R5 [6] $end
$var wire 1 '! R5 [5] $end
$var wire 1 (! R5 [4] $end
$var wire 1 )! R5 [3] $end
$var wire 1 *! R5 [2] $end
$var wire 1 +! R5 [1] $end
$var wire 1 ,! R5 [0] $end
$var wire 1 -! V $end
$var wire 1 .! Z $end

$scope module i1 $end
$var wire 1 /! gnd $end
$var wire 1 0! vcc $end
$var wire 1 1! unknown $end
$var tri1 1 2! devclrn $end
$var tri1 1 3! devpor $end
$var tri1 1 4! devoe $end
$var wire 1 5! ~QUARTUS_CREATED_GND~I_combout $end
$var wire 1 6! clkCPU~input_o $end
$var wire 1 7! clkCPU~inputCLKENA0_outclk $end
$var wire 1 8! reset~input_o $end
$var wire 1 9! inst|inst11|state.Fetch~q $end
$var wire 1 :! inst|inst11|state.Decode~0_combout $end
$var wire 1 ;! inst|inst11|state.Decode~DUPLICATE_q $end
$var wire 1 <! inst|inst11|state.Execute~q $end
$var wire 1 =! inst|inst11|state.Fetch~0_combout $end
$var wire 1 >! inst|inst11|state.Fetch~DUPLICATE_q $end
$var wire 1 ?! inst|inst11|clkMemory~0_combout $end
$var wire 1 @! inst|inst11|clkMemory~q $end
$var wire 1 A! inst|inst11|PCtemp[0]~4_combout $end
$var wire 1 B! inst|inst11|PCtemp[0]~DUPLICATE_q $end
$var wire 1 C! inst|inst11|PCtemp[1]~3_combout $end
$var wire 1 D! inst|inst11|PCtemp[1]~DUPLICATE_q $end
$var wire 1 E! inst|inst11|PCtemp[2]~2_combout $end
$var wire 1 F! inst|inst11|PCtemp[3]~1_combout $end
$var wire 1 G! inst|inst11|PCtemp[3]~DUPLICATE_q $end
$var wire 1 H! inst|inst11|PCtemp[4]~0_combout $end
$var wire 1 I! inst|inst11|state.Decode~q $end
$var wire 1 J! inst|inst11|S[0]~0_combout $end
$var wire 1 K! inst|inst11|selDest~1_combout $end
$var wire 1 L! inst|inst11|selDest~2_combout $end
$var wire 1 M! inst|inst11|selDest~0_combout $end
$var wire 1 N! inst|inst11|ClkReg~q $end
$var wire 1 O! inst|inst11|tipo~q $end
$var wire 1 P! inst|inst11|M~q $end
$var wire 1 Q! inst|inst4|inst|19~feeder_combout $end
$var wire 1 R! inst|inst4|inst|19~q $end
$var wire 1 S! inst|inst1|inst|19~q $end
$var wire 1 T! inst|inst6|inst|19~feeder_combout $end
$var wire 1 U! inst|inst6|inst|19~q $end
$var wire 1 V! inst|inst5|inst|19~q $end
$var wire 1 W! inst|inst7|Mux1~0_combout $end
$var wire 1 X! inst|inst2|inst|19~q $end
$var wire 1 Y! inst|inst7|Mux1~1_combout $end
$var wire 1 Z! inst|inst|inst1|82~0_combout $end
$var wire 1 [! inst|inst11|dataIN[3]~feeder_combout $end
$var wire 1 \! inst|inst4|inst|16~feeder_combout $end
$var wire 1 ]! inst|inst4|inst|16~q $end
$var wire 1 ^! inst|inst6|inst|16~q $end
$var wire 1 _! inst|inst1|inst|16~feeder_combout $end
$var wire 1 `! inst|inst1|inst|16~q $end
$var wire 1 a! inst|inst5|inst|16~q $end
$var wire 1 b! inst|inst8|Mux4~0_combout $end
$var wire 1 c! inst|inst3|inst|16~q $end
$var wire 1 d! inst|inst8|Mux4~1_combout $end
$var wire 1 e! inst|inst7|Mux4~0_combout $end
$var wire 1 f! inst|inst7|Mux4~1_combout $end
$var wire 1 g! inst|inst|inst|77~0_combout $end
$var wire 1 h! inst|inst11|dataIN[2]~feeder_combout $end
$var wire 1 i! inst|inst3|inst|15~q $end
$var wire 1 j! inst|inst6|inst|15~q $end
$var wire 1 k! inst|inst1|inst|15~q $end
$var wire 1 l! inst|inst4|inst|15~feeder_combout $end
$var wire 1 m! inst|inst4|inst|15~q $end
$var wire 1 n! inst|inst5|inst|15~q $end
$var wire 1 o! inst|inst8|Mux5~0_combout $end
$var wire 1 p! inst|inst8|Mux5~1_combout $end
$var wire 1 q! inst|inst|inst|82~0_combout $end
$var wire 1 r! inst|inst11|dataIN[1]~feeder_combout $end
$var wire 1 s! inst|inst3|inst|14~q $end
$var wire 1 t! inst|inst6|inst|14~feeder_combout $end
$var wire 1 u! inst|inst6|inst|14~q $end
$var wire 1 v! inst|inst1|inst|14~q $end
$var wire 1 w! inst|inst4|inst|14~q $end
$var wire 1 x! inst|inst5|inst|14~feeder_combout $end
$var wire 1 y! inst|inst5|inst|14~q $end
$var wire 1 z! inst|inst7|Mux6~0_combout $end
$var wire 1 {! inst|inst7|Mux6~1_combout $end
$var wire 1 |! inst|inst8|Mux6~0_combout $end
$var wire 1 }! inst|inst8|Mux6~1_combout $end
$var wire 1 ~! inst|inst|inst|81~0_combout $end
$var wire 1 !" inst|inst11|cIn~q $end
$var wire 1 "" inst|inst|inst|66~0_combout $end
$var wire 1 #" inst|inst11|dataIN[0]~feeder_combout $end
$var wire 1 $" inst|inst2|inst|13~q $end
$var wire 1 %" inst|inst8|Mux7~2_combout $end
$var wire 1 &" inst|inst4|inst|13~q $end
$var wire 1 '" inst|inst1|inst|13~q $end
$var wire 1 (" inst|inst6|inst|13~q $end
$var wire 1 )" inst|inst5|inst|13~q $end
$var wire 1 *" inst|inst8|Mux7~0_combout $end
$var wire 1 +" inst|inst|inst|46~0_combout $end
$var wire 1 ," inst|inst|inst|43~0_combout $end
$var wire 1 -" inst|inst10|$00000|auto_generated|l1_w0_n0_mux_dataout~0_combout $end
$var wire 1 ." inst|inst3|inst|13~q $end
$var wire 1 /" inst|inst7|Mux7~0_combout $end
$var wire 1 0" inst|inst7|Mux7~1_combout $end
$var wire 1 1" inst|inst8|Mux7~1_combout $end
$var wire 1 2" inst|inst|inst|43~combout $end
$var wire 1 3" inst|inst|inst|66~combout $end
$var wire 1 4" inst|inst10|$00000|auto_generated|l1_w1_n0_mux_dataout~0_combout $end
$var wire 1 5" inst|inst2|inst|14~q $end
$var wire 1 6" inst|inst8|Mux6~2_combout $end
$var wire 1 7" inst|inst|inst|47~1_combout $end
$var wire 1 8" inst|inst|inst|78~4_combout $end
$var wire 1 9" inst|inst|inst|44~0_combout $end
$var wire 1 :" inst|inst|inst|78~5_combout $end
$var wire 1 ;" inst|inst10|$00000|auto_generated|l1_w2_n0_mux_dataout~0_combout $end
$var wire 1 <" inst|inst2|inst|15~q $end
$var wire 1 =" inst|inst7|Mux5~0_combout $end
$var wire 1 >" inst|inst7|Mux5~1_combout $end
$var wire 1 ?" inst|inst|inst|45~combout $end
$var wire 1 @" inst|inst|inst|44~combout $end
$var wire 1 A" inst|inst|inst|48~0_combout $end
$var wire 1 B" inst|inst|inst|78~0_combout $end
$var wire 1 C" inst|inst|inst|47~0_combout $end
$var wire 1 D" inst|inst|inst|74~0_combout $end
$var wire 1 E" inst|inst10|$00000|auto_generated|l1_w3_n0_mux_dataout~0_combout $end
$var wire 1 F" inst|inst2|inst|16~q $end
$var wire 1 G" inst|inst8|Mux4~2_combout $end
$var wire 1 H" inst|inst|inst|51~0_combout $end
$var wire 1 I" inst|inst8|Mux5~2_combout $end
$var wire 1 J" inst|inst|inst|45~0_combout $end
$var wire 1 K" inst|inst|inst|52~0_combout $end
$var wire 1 L" inst|inst|inst|78~3_combout $end
$var wire 1 M" inst|inst2|inst|17~q $end
$var wire 1 N" inst|inst6|inst|17~q $end
$var wire 1 O" inst|inst4|inst|17~feeder_combout $end
$var wire 1 P" inst|inst4|inst|17~q $end
$var wire 1 Q" inst|inst1|inst|17~q $end
$var wire 1 R" inst|inst5|inst|17~q $end
$var wire 1 S" inst|inst7|Mux3~0_combout $end
$var wire 1 T" inst|inst7|Mux3~1_combout $end
$var wire 1 U" inst|inst|inst1|80~0_combout $end
$var wire 1 V" inst|inst|inst|78~1_combout $end
$var wire 1 W" inst|inst|inst|78~2_combout $end
$var wire 1 X" inst|inst10|$00000|auto_generated|l1_w4_n0_mux_dataout~0_combout $end
$var wire 1 Y" inst|inst3|inst|17~q $end
$var wire 1 Z" inst|inst8|Mux3~0_combout $end
$var wire 1 [" inst|inst8|Mux3~1_combout $end
$var wire 1 \" inst|inst2|inst|18~q $end
$var wire 1 ]" inst|inst6|inst|18~q $end
$var wire 1 ^" inst|inst4|inst|18~q $end
$var wire 1 _" inst|inst5|inst|18~q $end
$var wire 1 `" inst|inst1|inst|18~q $end
$var wire 1 a" inst|inst7|Mux2~0_combout $end
$var wire 1 b" inst|inst7|Mux2~1_combout $end
$var wire 1 c" inst|inst|inst1|81~0_combout $end
$var wire 1 d" inst|inst11|dataIN[5]~feeder_combout $end
$var wire 1 e" inst|inst|inst1|65~0_combout $end
$var wire 1 f" inst|inst|inst1|46~0_combout $end
$var wire 1 g" inst|inst|inst1|66~0_combout $end
$var wire 1 h" inst|inst10|$00000|auto_generated|l1_w5_n0_mux_dataout~0_combout $end
$var wire 1 i" inst|inst3|inst|18~q $end
$var wire 1 j" inst|inst8|Mux2~0_combout $end
$var wire 1 k" inst|inst8|Mux2~1_combout $end
$var wire 1 l" inst|inst|inst1|78~0_combout $end
$var wire 1 m" inst|inst8|Mux3~2_combout $end
$var wire 1 n" inst|inst|inst1|43~0_combout $end
$var wire 1 o" inst|inst8|Mux2~2_combout $end
$var wire 1 p" inst|inst|inst1|47~0_combout $end
$var wire 1 q" inst|inst|inst1|44~0_combout $end
$var wire 1 r" inst|inst|inst1|78~1_combout $end
$var wire 1 s" inst|inst|inst1|78~4_combout $end
$var wire 1 t" inst|inst10|$00000|auto_generated|l1_w6_n0_mux_dataout~0_combout $end
$var wire 1 u" inst|inst3|inst|19~q $end
$var wire 1 v" inst|inst8|Mux1~0_combout $end
$var wire 1 w" inst|inst8|Mux1~1_combout $end
$var wire 1 x" inst|inst|inst1|48~0_combout $end
$var wire 1 y" inst|inst|inst1|74~0_combout $end
$var wire 1 z" inst|inst6|inst|20~q $end
$var wire 1 {" inst|inst4|inst|20~q $end
$var wire 1 |" inst|inst1|inst|20~q $end
$var wire 1 }" inst|inst5|inst|20~q $end
$var wire 1 ~" inst|inst7|Mux0~0_combout $end
$var wire 1 !# inst|inst3|inst|20~q $end
$var wire 1 "# inst|inst7|Mux0~1_combout $end
$var wire 1 ## inst|inst|inst1|77~0_combout $end
$var wire 1 $# inst|inst|inst1|75~0_combout $end
$var wire 1 %# inst|inst10|$00000|auto_generated|l1_w7_n0_mux_dataout~0_combout $end
$var wire 1 &# inst|inst2|inst|20~q $end
$var wire 1 '# inst|inst8|Mux0~0_combout $end
$var wire 1 (# inst|inst8|Mux0~1_combout $end
$var wire 1 )# inst|inst|inst1|45~combout $end
$var wire 1 *# inst|inst|inst1|78~5_combout $end
$var wire 1 +# inst|inst|inst1|78~2_combout $end
$var wire 1 ,# inst|inst|inst1|78~3_combout $end
$var wire 1 -# inst|inst|inst1|77~combout $end
$var wire 1 .# inst|inst|inst|82~combout $end
$var wire 1 /# inst|inst|inst|77~combout $end
$var wire 1 0# inst|inst|inst2~0_combout $end
$var wire 1 1# inst|inst|inst2~1_combout $end
$var wire 1 2# inst|inst|inst1|81~combout $end
$var wire 1 3# inst|inst|inst1|80~combout $end
$var wire 1 4# inst|inst|inst2~combout $end
$var wire 1 5# inst|inst|inst6~0_combout $end
$var wire 1 6# inst|inst|inst6~1_combout $end
$var wire 1 7# inst|inst|inst1|82~combout $end
$var wire 1 8# inst|inst|inst|81~combout $end
$var wire 1 9# inst|inst8|Mux7~3_combout $end
$var wire 1 :# inst|inst8|Mux0~2_combout $end
$var wire 1 ;# inst|inst|inst|7~combout $end
$var wire 1 <# inst|inst|inst|46~2_combout $end
$var wire 1 =# inst|inst|inst|46~1_combout $end
$var wire 1 ># inst|inst|inst|6~combout $end
$var wire 1 ?# inst|inst|inst|80~combout $end
$var wire 1 @# inst|inst11|selOpB [2] $end
$var wire 1 A# inst|inst11|selOpB [1] $end
$var wire 1 B# inst|inst11|selOpB [0] $end
$var wire 1 C# inst|inst9|y [7] $end
$var wire 1 D# inst|inst9|y [6] $end
$var wire 1 E# inst|inst9|y [5] $end
$var wire 1 F# inst|inst9|y [4] $end
$var wire 1 G# inst|inst9|y [3] $end
$var wire 1 H# inst|inst9|y [2] $end
$var wire 1 I# inst|inst9|y [1] $end
$var wire 1 J# inst|inst9|y [0] $end
$var wire 1 K# inst|inst11|S [3] $end
$var wire 1 L# inst|inst11|S [2] $end
$var wire 1 M# inst|inst11|S [1] $end
$var wire 1 N# inst|inst11|S [0] $end
$var wire 1 O# inst|inst11|selOpA [2] $end
$var wire 1 P# inst|inst11|selOpA [1] $end
$var wire 1 Q# inst|inst11|selOpA [0] $end
$var wire 1 R# inst1|altsyncram_component|auto_generated|q_a [15] $end
$var wire 1 S# inst1|altsyncram_component|auto_generated|q_a [14] $end
$var wire 1 T# inst1|altsyncram_component|auto_generated|q_a [13] $end
$var wire 1 U# inst1|altsyncram_component|auto_generated|q_a [12] $end
$var wire 1 V# inst1|altsyncram_component|auto_generated|q_a [11] $end
$var wire 1 W# inst1|altsyncram_component|auto_generated|q_a [10] $end
$var wire 1 X# inst1|altsyncram_component|auto_generated|q_a [9] $end
$var wire 1 Y# inst1|altsyncram_component|auto_generated|q_a [8] $end
$var wire 1 Z# inst1|altsyncram_component|auto_generated|q_a [7] $end
$var wire 1 [# inst1|altsyncram_component|auto_generated|q_a [6] $end
$var wire 1 \# inst1|altsyncram_component|auto_generated|q_a [5] $end
$var wire 1 ]# inst1|altsyncram_component|auto_generated|q_a [4] $end
$var wire 1 ^# inst1|altsyncram_component|auto_generated|q_a [3] $end
$var wire 1 _# inst1|altsyncram_component|auto_generated|q_a [2] $end
$var wire 1 `# inst1|altsyncram_component|auto_generated|q_a [1] $end
$var wire 1 a# inst1|altsyncram_component|auto_generated|q_a [0] $end
$var wire 1 b# inst|inst11|dataIN [7] $end
$var wire 1 c# inst|inst11|dataIN [6] $end
$var wire 1 d# inst|inst11|dataIN [5] $end
$var wire 1 e# inst|inst11|dataIN [4] $end
$var wire 1 f# inst|inst11|dataIN [3] $end
$var wire 1 g# inst|inst11|dataIN [2] $end
$var wire 1 h# inst|inst11|dataIN [1] $end
$var wire 1 i# inst|inst11|dataIN [0] $end
$var wire 1 j# inst|inst11|PCtemp [4] $end
$var wire 1 k# inst|inst11|PCtemp [3] $end
$var wire 1 l# inst|inst11|PCtemp [2] $end
$var wire 1 m# inst|inst11|PCtemp [1] $end
$var wire 1 n# inst|inst11|PCtemp [0] $end
$var wire 1 o# inst|inst11|selDest [2] $end
$var wire 1 p# inst|inst11|selDest [1] $end
$var wire 1 q# inst|inst11|selDest [0] $end
$var wire 1 r# inst1|altsyncram_component|auto_generated|ram_block1a0_PORTADATAOUT_bus [19] $end
$var wire 1 s# inst1|altsyncram_component|auto_generated|ram_block1a0_PORTADATAOUT_bus [18] $end
$var wire 1 t# inst1|altsyncram_component|auto_generated|ram_block1a0_PORTADATAOUT_bus [17] $end
$var wire 1 u# inst1|altsyncram_component|auto_generated|ram_block1a0_PORTADATAOUT_bus [16] $end
$var wire 1 v# inst1|altsyncram_component|auto_generated|ram_block1a0_PORTADATAOUT_bus [15] $end
$var wire 1 w# inst1|altsyncram_component|auto_generated|ram_block1a0_PORTADATAOUT_bus [14] $end
$var wire 1 x# inst1|altsyncram_component|auto_generated|ram_block1a0_PORTADATAOUT_bus [13] $end
$var wire 1 y# inst1|altsyncram_component|auto_generated|ram_block1a0_PORTADATAOUT_bus [12] $end
$var wire 1 z# inst1|altsyncram_component|auto_generated|ram_block1a0_PORTADATAOUT_bus [11] $end
$var wire 1 {# inst1|altsyncram_component|auto_generated|ram_block1a0_PORTADATAOUT_bus [10] $end
$var wire 1 |# inst1|altsyncram_component|auto_generated|ram_block1a0_PORTADATAOUT_bus [9] $end
$var wire 1 }# inst1|altsyncram_component|auto_generated|ram_block1a0_PORTADATAOUT_bus [8] $end
$var wire 1 ~# inst1|altsyncram_component|auto_generated|ram_block1a0_PORTADATAOUT_bus [7] $end
$var wire 1 !$ inst1|altsyncram_component|auto_generated|ram_block1a0_PORTADATAOUT_bus [6] $end
$var wire 1 "$ inst1|altsyncram_component|auto_generated|ram_block1a0_PORTADATAOUT_bus [5] $end
$var wire 1 #$ inst1|altsyncram_component|auto_generated|ram_block1a0_PORTADATAOUT_bus [4] $end
$var wire 1 $$ inst1|altsyncram_component|auto_generated|ram_block1a0_PORTADATAOUT_bus [3] $end
$var wire 1 %$ inst1|altsyncram_component|auto_generated|ram_block1a0_PORTADATAOUT_bus [2] $end
$var wire 1 &$ inst1|altsyncram_component|auto_generated|ram_block1a0_PORTADATAOUT_bus [1] $end
$var wire 1 '$ inst1|altsyncram_component|auto_generated|ram_block1a0_PORTADATAOUT_bus [0] $end
$upscope $end
$upscope $end
$enddefinitions $end
#0
$dumpvars
0!
0"
0#
03
02
01
00
0/
0.
0-
0,
0+
0*
0)
0(
0'
0&
0%
0$
08
07
06
05
04
1@
0?
0>
0=
0<
0;
0:
09
1A
0B
0J
0I
0H
0G
0F
0E
0D
0C
0R
0Q
0P
0O
0N
0M
0L
0K
1Z
0Y
0X
0W
0V
0U
0T
0S
0b
0a
0`
0_
0^
0]
0\
0[
0j
0i
0h
0g
0f
0e
0d
0c
0r
0q
0p
0o
0n
0m
0l
0k
0z
0y
0x
0w
0v
0u
0t
0s
0$!
0#!
0"!
0!!
0~
0}
0|
0{
0,!
0+!
0*!
0)!
0(!
0'!
0&!
0%!
0-!
0.!
0/!
10!
x1!
12!
13!
14!
05!
06!
07!
08!
09!
1:!
0;!
0<!
1=!
0>!
1?!
0@!
1A!
0B!
0C!
0D!
0E!
0F!
0G!
0H!
0I!
0J!
0K!
0L!
0M!
0N!
0O!
0P!
0Q!
0R!
0S!
0T!
0U!
0V!
0W!
0X!
0Y!
0Z!
0[!
0\!
0]!
0^!
0_!
0`!
0a!
0b!
0c!
0d!
0e!
0f!
0g!
0h!
0i!
0j!
0k!
0l!
0m!
0n!
0o!
0p!
0q!
0r!
0s!
0t!
0u!
0v!
0w!
0x!
0y!
0z!
0{!
0|!
0}!
0~!
0!"
0""
0#"
0$"
0%"
0&"
0'"
0("
0)"
0*"
0+"
0,"
1-"
0."
0/"
00"
01"
12"
03"
04"
05"
06"
07"
08"
09"
1:"
0;"
0<"
0="
0>"
1?"
1@"
0A"
0B"
0C"
1D"
0E"
0F"
0G"
0H"
0I"
0J"
0K"
1L"
0M"
0N"
0O"
0P"
0Q"
0R"
0S"
0T"
0U"
0V"
1W"
0X"
0Y"
0Z"
0["
0\"
0]"
0^"
0_"
0`"
0a"
0b"
0c"
0d"
1e"
0f"
1g"
0h"
0i"
0j"
0k"
0l"
0m"
0n"
0o"
0p"
0q"
1r"
0s"
0t"
0u"
0v"
0w"
0x"
1y"
0z"
0{"
0|"
0}"
0~"
0!#
0"#
0##
1$#
0%#
0&#
0'#
0(#
0)#
1*#
0+#
1,#
1-#
1.#
1/#
00#
11#
12#
13#
14#
05#
06#
17#
18#
09#
0:#
0;#
0<#
0=#
0>#
0?#
0B#
0A#
0@#
0J#
0I#
0H#
0G#
0F#
0E#
zD#
zC#
0N#
0M#
0L#
0K#
0Q#
0P#
0O#
0a#
0`#
0_#
0^#
0]#
0\#
0[#
0Z#
0Y#
0X#
0W#
0V#
0U#
0T#
0S#
0R#
0i#
0h#
0g#
0f#
0e#
0d#
0c#
0b#
0n#
0m#
0l#
0k#
0j#
0q#
0p#
0o#
0'$
0&$
0%$
0$$
0#$
0"$
0!$
0~#
0}#
0|#
0{#
0z#
0y#
0x#
0w#
0v#
0u#
0t#
0s#
0r#
$end
#10000
1!
16!
17!
1I!
1B!
1>!
1;!
19!
1@!
1n#
18
1#
1J!
0:!
0?!
#10001
1%$
1$$
1"$
1~#
1x#
1v#
1_#
1^#
1\#
1Z#
1T#
1R#
1$
1&
1,
1.
10
11
1K!
1d"
1[!
1h!
#20000
0!
06!
07!
#30000
1!
16!
17!
1d#
1g#
1f#
1b#
1O!
1p#
0I!
1<!
0;!
0@!
0#
0J!
0=!
1%#
1h"
1E"
1;"
0-"
0@
1>
1=
1;
19
1l!
1_!
1\!
#40000
0!
06!
07!
#50000
1!
16!
17!
1N!
0>!
0<!
09!
0A!
1:!
1=!
1C!
1?!
1H#
1z"
1]"
1j!
1^!
1o
1p
1m
1k
#60000
0!
06!
07!
#70000
1!
16!
17!
0N!
1I!
1D!
0B!
1>!
1;!
19!
1@!
1m#
0n#
08
17
1#
1J!
0:!
0?!
0H#
#70001
1&$
0$$
0"$
1!$
0~#
1y#
0x#
1w#
1`#
0^#
0\#
1[#
0Z#
1U#
0T#
1S#
1%
0&
1'
0,
1-
0.
00
12
1L!
0K!
1M!
0d"
0[!
1r!
#80000
0!
06!
07!
#90000
1!
16!
17!
0d#
1h#
0f#
1c#
0b#
1q#
1o#
0p#
0I!
1<!
0;!
0@!
0#
0J!
0=!
0%#
1t"
0E"
14"
0h"
0;
1?
0=
1:
09
1x!
1t!
0_!
0\!
1T!
1Q!
#100000
0!
06!
07!
#110000
1!
16!
17!
1N!
0>!
0<!
09!
1A!
1:!
1=!
1?!
1E#
1u"
1s!
1i!
1*!
1+!
1&!
#120000
0!
06!
07!
#130000
1!
16!
17!
0N!
1I!
1B!
1>!
1;!
19!
1@!
1n#
18
1#
1J!
0:!
0?!
0E#
#130001
1'$
0&$
1#$
1|#
0v#
1a#
0`#
1]#
1X#
0R#
0$
1*
1/
02
13
0L!
0r!
1#"
#140000
0!
06!
07!
#150000
1!
16!
17!
1!"
0h#
0g#
1@#
1P#
0c#
1K#
0O!
0o#
1B#
1N#
0I!
1<!
0;!
0@!
0#
0J!
1:#
1I"
16"
1B"
1~"
1a"
1="
1e!
15#
10#
18"
1""
0=!
1w"
1}!
1p!
0t"
0;"
04"
1-"
1@
0?
0>
0:
1P
1Q
1L
1?#
13"
04#
19"
17"
1J"
0?"
1q!
0@"
1~!
1)#
0y"
1Z!
0-"
1f!
1>"
1b"
1"#
0x!
0t!
0l!
0T!
0Q!
1C
1E
1H
1G
0@
1.!
0Z
07#
01#
0*#
08#
00#
0.#
0L"
1##
1c"
1V"
1A"
0q!
1g!
1t"
14"
1;"
1>
1?
1:
1X
1Y
1T
1.#
0D"
03#
0g"
0W"
02#
0-#
14#
1E"
0;"
1h"
1%#
1l!
1x!
1t!
1T!
1Q!
19
1;
0>
1=
0.!
1S
1B
1U
1V
0X
1X"
0E"
0l!
1_!
1\!
0=
1<
0_!
0\!
1O"
#160000
0!
06!
07!
#170000
1!
16!
17!
1N!
0>!
0<!
09!
0A!
1:!
1=!
1E!
0C!
1?!
1I#
1}"
1_"
1R"
1y!
1V!
1d
1i
1f
1e
1c
1v"
1|!
1Z"
1j"
1'#
#180000
0!
06!
07!
#190000
1!
16!
17!
0N!
1I!
0D!
0B!
1>!
1;!
19!
1@!
1l#
0m#
0n#
08
07
16
1#
1J!
0:!
0?!
0I#
#190001
0'$
0%$
1$$
0#$
0!$
1{#
1z#
1x#
0w#
0a#
0_#
1^#
0]#
0[#
1W#
1V#
1T#
0S#
0%
1&
1(
1)
0-
0/
10
01
03
0M!
1[!
0h!
0#"
#200000
0!
06!
07!
#210000
1!
16!
17!
0!"
0@#
1Q#
0P#
1P!
0q#
0B#
1L#
1M#
0I!
1<!
0;!
0@!
0#
0J!
1;#
0##
1q"
1n"
0e"
0c"
1U"
1H"
02"
1,"
0g!
1<#
1+#
1p"
1l"
1K"
0B"
1+"
0:#
0'#
0v"
0j"
0Z"
0I"
06"
0|!
17#
11#
0.#
1-#
0$#
0""
1S"
0="
1z!
0e!
1W!
05#
08"
0=!
1(#
1k"
1["
0p!
0t"
1;"
1>
0:
0P
1N
1M
1K
0S
0B
1X
0T
13#
0/#
03"
10#
0r"
0:"
01#
0-#
15#
1Y!
0f!
1{!
0>"
1T"
0}!
0["
0k"
0w"
0(#
0,#
1E"
0X"
1l!
0T!
0Q!
0<
1=
0A
0K
0L
0M
0N
0Q
1F
0H
1I
0G
1D
1S
1B
1W
0V
1s"
18#
05#
1x"
0Z!
1f"
0U"
1C"
0~!
0V"
0A"
1q!
1g!
04"
0O"
1_!
1\!
0?
0Y
1/#
1.#
03#
08#
00#
07#
0E"
0;"
14"
1X"
1t"
0x!
0t!
1:
1<
1?
0>
0=
1T
1Y
1V
0X
0W
1T!
1Q!
1O"
1x!
1t!
0l!
0_!
0\!
#220000
0!
06!
07!
#230000
1!
16!
17!
1N!
0>!
0<!
09!
1A!
1:!
1=!
1?!
1J#
1{"
1^"
1P"
1w!
1R!
1\
1a
1^
1]
1[
1v"
1|!
1Z"
1j"
1'#
1(#
1k"
1["
1}!
1w"
1L
1Q
1N
1M
1K
15#
#240000
0!
06!
07!
#250000
1!
16!
17!
0N!
1I!
1B!
1>!
1;!
19!
1@!
1n#
18
1#
1J!
0:!
0?!
0J#
#250001
1}#
0|#
0y#
0x#
1Y#
0X#
0U#
0T#
0&
0'
0*
1+
1L!
#260000
0!
06!
07!
#270000
1!
16!
17!
0P!
0K#
1o#
0N#
0I!
1<!
0;!
0@!
0#
0J!
1##
0q"
0n"
1c"
1U"
09"
1~!
1Z!
0+#
0x"
0p"
0l"
0f"
0C"
07"
0=!
12#
17#
11#
1-#
18#
10#
13#
0h"
0%#
0t"
04"
0X"
0<
0?
0:
09
0;
0V
0Y
0S
0B
0T
0U
04#
0O"
0x!
0t!
0T!
0Q!
1.!
#280000
0!
06!
07!
#290000
1!
16!
17!
1N!
0>!
0<!
09!
0A!
1:!
1=!
1C!
1?!
1F#
#300000
0!
06!
07!
#310000
1!
16!
17!
0N!
1I!
1D!
0B!
1>!
1;!
19!
1@!
1m#
0n#
08
17
1#
1J!
0:!
0?!
0F#
#310001
1&$
0$$
1#$
1!$
1~#
0}#
1|#
0{#
0z#
1y#
1w#
1`#
0^#
1]#
1[#
1Z#
0Y#
1X#
0W#
0V#
1U#
1S#
1%
1'
0(
0)
1*
0+
1,
1-
1/
00
12
0L!
1M!
1K!
0[!
1r!
#320000
0!
06!
07!
